module gitlab.com/brightonc/ws-core

go 1.15

require (
	github.com/dgrijalva/jwt-go v3.2.0+incompatible // indirect
	github.com/google/uuid v1.2.0 // indirect
	github.com/joho/godotenv v1.3.0 // indirect
	github.com/stretchr/testify v1.7.0 // indirect
)
